GetProductDetails: Incorrect syntax near 'limit'.
GetBannerSubBannerDetails: Invalid object name 'dim_stores'.
GetBannerSubBannerDetails: Invalid object name 'dim_stores'.
GetProductDetails: Incorrect syntax near 'limit'.
GetBannerSubBannerDetails: Invalid object name 'dim_stores'.
GetBannerSubBannerDetails: Invalid object name 'dim_stores'.
GetProductDetails: Incorrect syntax near 'limit'.
GetBannerSubBannerDetails: Invalid object name 'dim_stores'.
GetBannerSubBannerDetails: Invalid object name 'dim_stores'.
GetProductDetails: Incorrect syntax near 'limit'.
GetBannerSubBannerDetails: Invalid object name 'dim_stores'.
GetBannerSubBannerDetails: Invalid object name 'dim_stores'.
GetProductDetails: Incorrect syntax near 'limit'.
GetBannerSubBannerDetails: Invalid object name 'dim_stores'.
GetProductDetails: Incorrect syntax near 'limit'.
GetBannerSubBannerDetails: Invalid object name 'dim_stores'.
GetBannerSubBannerDetails: Invalid object name 'dim_stores'.
GetBannerSubBannerDetails: Invalid object name 'dim_stores'.
GetProductDetails: Incorrect syntax near 'limit'.
GetBannerSubBannerDetails: Invalid object name 'dim_stores'.
GetBannerSubBannerDetails: Invalid object name 'dim_stores'.
GetProductDetails: Incorrect syntax near 'limit'.
GetBannerSubBannerDetails: Invalid object name 'dim_stores'.
GetBannerSubBannerDetails: Invalid object name 'dim_stores'.
GetProductDetails: Incorrect syntax near 'limit'.
GetBannerSubBannerDetails: Invalid object name 'dim_stores'.
GetBannerSubBannerDetails: Invalid object name 'dim_stores'.
GetProductDetails: Incorrect syntax near 'limit'.
GetBannerSubBannerDetails: Invalid object name 'dim_stores'.
GetBannerSubBannerDetails: Invalid object name 'dim_stores'.
GetProductDetails: Incorrect syntax near 'limit'.
GetBannerSubBannerDetails: Invalid object name 'dim_stores'.
GetBannerSubBannerDetails: Invalid object name 'dim_stores'.
GetProductDetails: Incorrect syntax near 'limit'.
GetBannerSubBannerDetails: Invalid object name 'dim_stores'.
GetBannerSubBannerDetails: Invalid object name 'dim_stores'.
GetProductDetails: Incorrect syntax near 'limit'.
GetBannerSubBannerDetails: Invalid object name 'dim_stores'.
GetBannerSubBannerDetails: Invalid object name 'dim_stores'.
GetProductDetails: Incorrect syntax near 'limit'.
GetBannerSubBannerDetails: Invalid object name 'dim_stores'.
GetBannerSubBannerDetails: Invalid object name 'dim_stores'.
GetProductDetails: Incorrect syntax near 'limit'.
GetBannerSubBannerDetails: Invalid object name 'dim_stores'.
GetBannerSubBannerDetails: Invalid object name 'dim_stores'.
GetProductDetails: Incorrect syntax near 'limit'.
GetBannerSubBannerDetails: Invalid object name 'dim_stores'.
GetBannerSubBannerDetails: Invalid object name 'dim_stores'.
GetProductDetails: Incorrect syntax near 'limit'.
GetBannerSubBannerDetails: Invalid object name 'dim_stores'.
GetBannerSubBannerDetails: Invalid object name 'dim_stores'.
GetProductDetails: Incorrect syntax near 'limit'.
GetBannerSubBannerDetails: Invalid object name 'dim_stores'.
GetBannerSubBannerDetails: Invalid object name 'dim_stores'.
GetProductDetails: Incorrect syntax near 'limit'.
GetBannerSubBannerDetails: Invalid object name 'dim_stores'.
GetBannerSubBannerDetails: Invalid object name 'dim_stores'.
GetProductDetails: Incorrect syntax near 'limit'.
GetBannerSubBannerDetails: Invalid object name 'dim_stores'.
GetBannerSubBannerDetails: Invalid object name 'dim_stores'.
GetProductDetails: Incorrect syntax near 'limit'.
GetBannerSubBannerDetails: Invalid object name 'dim_stores'.
GetBannerSubBannerDetails: Invalid object name 'dim_stores'.
GetProductDetails: Incorrect syntax near 'limit'.
GetBannerSubBannerDetails: Invalid object name 'dim_stores'.
GetBannerSubBannerDetails: Invalid object name 'dim_stores'.
GetProductDetails: Incorrect syntax near 'limit'.
GetBannerSubBannerDetails: Invalid object name 'dim_stores'.
GetBannerSubBannerDetails: Invalid object name 'dim_stores'.
GetProductDetails: Incorrect syntax near 'limit'.
GetBannerSubBannerDetails: Invalid object name 'dim_stores'.
GetBannerSubBannerDetails: Invalid object name 'dim_stores'.
GetProductDetails: Incorrect syntax near 'limit'.
GetBannerSubBannerDetails: Invalid object name 'dim_stores'.
GetBannerSubBannerDetails: Invalid object name 'dim_stores'.
GetProductDetails: Incorrect syntax near 'limit'.
GetBannerSubBannerDetails: Invalid object name 'dim_stores'.
GetBannerSubBannerDetails: Invalid object name 'dim_stores'.
GetProductDetails: Incorrect syntax near 'limit'.
GetBannerSubBannerDetails: Invalid object name 'dim_stores'.
GetBannerSubBannerDetails: Invalid object name 'dim_stores'.
GetProductDetails: Incorrect syntax near 'limit'.
GetBannerSubBannerDetails: Invalid object name 'dim_stores'.
GetBannerSubBannerDetails: Invalid object name 'dim_stores'.
GetProductDetails: Incorrect syntax near 'limit'.
GetBannerSubBannerDetails: Invalid object name 'dim_stores'.
GetBannerSubBannerDetails: Invalid object name 'dim_stores'.
GetProductDetails: Incorrect syntax near 'limit'.
GetBannerSubBannerDetails: Invalid object name 'dim_stores'.
GetBannerSubBannerDetails: Invalid object name 'dim_stores'.
GetProductDetails: Incorrect syntax near 'limit'.
GetBannerSubBannerDetails: Invalid object name 'dim_stores'.
GetBannerSubBannerDetails: Invalid object name 'dim_stores'.
GetProductDetails: Incorrect syntax near 'limit'.
GetBannerSubBannerDetails: Invalid object name 'dim_stores'.
GetBannerSubBannerDetails: Invalid object name 'dim_stores'.
GetProductDetails: Incorrect syntax near 'limit'.
GetBannerSubBannerDetails: Invalid object name 'dim_stores'.
GetBannerSubBannerDetails: Invalid object name 'dim_stores'.
GetProductDetails: Incorrect syntax near 'limit'.
GetBannerSubBannerDetails: Invalid object name 'dim_stores'.
GetBannerSubBannerDetails: Invalid object name 'dim_stores'.
GetProductDetails: Incorrect syntax near 'limit'.
GetBannerSubBannerDetails: Invalid object name 'dim_stores'.
GetBannerSubBannerDetails: Invalid object name 'dim_stores'.
GetProductDetails: Incorrect syntax near 'limit'.
GetBannerSubBannerDetails: Invalid object name 'dim_stores'.
GetBannerSubBannerDetails: Invalid object name 'dim_stores'.
GetProductDetails: Incorrect syntax near 'limit'.
GetBannerSubBannerDetails: Invalid object name 'dim_stores'.
GetBannerSubBannerDetails: Invalid object name 'dim_stores'.
GetProductDetails: Incorrect syntax near 'limit'.
GetBannerSubBannerDetails: Invalid object name 'dim_stores'.
GetBannerSubBannerDetails: Invalid object name 'dim_stores'.
GetProductDetails: Incorrect syntax near 'limit'.
GetBannerSubBannerDetails: Invalid object name 'dim_stores'.
GetBannerSubBannerDetails: Invalid object name 'dim_stores'.
GetProductDetails: Incorrect syntax near 'limit'.
GetBannerSubBannerDetails: Invalid object name 'dim_stores'.
GetBannerSubBannerDetails: Invalid object name 'dim_stores'.
GetProductDetails: Incorrect syntax near 'limit'.
GetBannerSubBannerDetails: Invalid object name 'dim_stores'.
GetBannerSubBannerDetails: Invalid object name 'dim_stores'.
GetProductDetails: Incorrect syntax near 'limit'.
GetBannerSubBannerDetails: Invalid object name 'dim_stores'.
GetBannerSubBannerDetails: Invalid object name 'dim_stores'.
GetHierarchyList: ExecuteReader: CommandText property has not been initialized
GetProductDetails: Incorrect syntax near 'limit'.
GetBannerSubBannerDetails: Invalid object name 'dim_stores'.
GetBannerSubBannerDetails: Invalid object name 'dim_stores'.
GetHierarchyList: ExecuteReader: CommandText property has not been initialized
GetProductDetails: Incorrect syntax near 'limit'.
GetBannerSubBannerDetails: Invalid object name 'dim_stores'.
GetBannerSubBannerDetails: Invalid object name 'dim_stores'.
GetProductDetails: Incorrect syntax near 'limit'.
GetBannerSubBannerDetails: Invalid object name 'dim_stores'.
GetBannerSubBannerDetails: Invalid object name 'dim_stores'.
GetProductDetails: Incorrect syntax near 'limit'.
GetBannerSubBannerDetails: Invalid object name 'dim_stores'.
GetBannerSubBannerDetails: Invalid object name 'dim_stores'.
GetProductDetails: Incorrect syntax near 'limit'.
GetBannerSubBannerDetails: Invalid object name 'dim_stores'.
GetBannerSubBannerDetails: Invalid object name 'dim_stores'.
GetProductDetails: Incorrect syntax near 'limit'.
GetBannerSubBannerDetails: Invalid object name 'dim_stores'.
GetBannerSubBannerDetails: Invalid object name 'dim_stores'.
GetProductDetails: Incorrect syntax near 'limit'.
GetBannerSubBannerDetails: Invalid object name 'dim_stores'.
GetBannerSubBannerDetails: Invalid object name 'dim_stores'.
GetProductDetails: Incorrect syntax near 'limit'.
GetBannerSubBannerDetails: Invalid object name 'dim_stores'.
GetBannerSubBannerDetails: Invalid object name 'dim_stores'.
GetProductDetails: Incorrect syntax near 'limit'.
GetBannerSubBannerDetails: Invalid object name 'dim_stores'.
GetBannerSubBannerDetails: Invalid object name 'dim_stores'.
GetProductDetails: Incorrect syntax near 'limit'.
GetBannerSubBannerDetails: Invalid object name 'dim_stores'.
GetBannerSubBannerDetails: Invalid object name 'dim_stores'.
GetProductDetails: Incorrect syntax near 'limit'.
GetBannerSubBannerDetails: Invalid object name 'dim_stores'.
GetBannerSubBannerDetails: Invalid object name 'dim_stores'.
GetProductDetails: Incorrect syntax near 'limit'.
GetBannerSubBannerDetails: Invalid object name 'dim_stores'.
GetBannerSubBannerDetails: Invalid object name 'dim_stores'.
GetProductDetails: Incorrect syntax near 'limit'.
GetBannerSubBannerDetails: Invalid object name 'dim_stores'.
GetBannerSubBannerDetails: Invalid object name 'dim_stores'.
GetProductDetials:Incorrect syntax near 'limit'.
GetHierarchyDetails:Invalid object name 'DIM_CUSTOM_HIERARCHY_EXTENDED'.
P_MARKET_BASKET_REQUEST_TEXTVALUES: Invalid object name 'dim_stores'.
P_MARKET_BASKET_REQUEST_TEXTVALUES: Invalid object name 'dim_stores'.
GetProductDetials:Incorrect syntax near 'limit'.
GetHierarchyDetails:Invalid object name 'DIM_CUSTOM_HIERARCHY_EXTENDED'.
P_MARKET_BASKET_REQUEST_TEXTVALUES: Invalid object name 'dim_stores'.
P_MARKET_BASKET_REQUEST_TEXTVALUES: Invalid object name 'dim_stores'.
GetProductDetials:Incorrect syntax near 'limit'.
GetHierarchyDetails:Invalid object name 'DIM_CUSTOM_HIERARCHY_EXTENDED'.
P_MARKET_BASKET_REQUEST_TEXTVALUES: Invalid object name 'dim_stores'.
P_MARKET_BASKET_REQUEST_TEXTVALUES: Invalid object name 'dim_stores'.
GetProductDetials:Incorrect syntax near 'limit'.
GetHierarchyDetails:Invalid object name 'DIM_CUSTOM_HIERARCHY_EXTENDED'.
P_MARKET_BASKET_REQUEST_TEXTVALUES: Invalid object name 'dim_stores'.
P_MARKET_BASKET_REQUEST_TEXTVALUES: Invalid object name 'dim_stores'.
GetProductDetials:Incorrect syntax near 'limit'.
GetHierarchyDetails:Invalid object name 'DIM_CUSTOM_HIERARCHY_EXTENDED'.
P_MARKET_BASKET_REQUEST_TEXTVALUES: Invalid object name 'dim_stores'.
P_MARKET_BASKET_REQUEST_TEXTVALUES: Invalid object name 'dim_stores'.
GetProductDetials:Incorrect syntax near 'limit'.
GetHierarchyDetails:Invalid object name 'DIM_CUSTOM_HIERARCHY_EXTENDED'.
GetProductDetials:Incorrect syntax near 'limit'.
GetHierarchyDetails:Invalid object name 'DIM_CUSTOM_HIERARCHY_EXTENDED'.
P_MARKET_BASKET_REQUEST_TEXTVALUES: Invalid object name 'dim_stores'.
GetProductDetials:Client unable to establish connection
GetHierarchyDetails:Unspecified error: E_FAIL(0x80004005)
P_MARKET_BASKET_REQUEST_TEXTVALUES: Client unable to establish connection
P_MARKET_BASKET_REQUEST_TEXTVALUES: Client unable to establish connection
GetProductDetials:No error message available, result code: E_FAIL(0x80004005).
GetHierarchyDetails:No error message available, result code: E_FAIL(0x80004005).
GetProductDetials:Client unable to establish connection
GetHierarchyDetails:Client unable to establish connection
P_MARKET_BASKET_REQUEST_TEXTVALUES: Client unable to establish connection
P_MARKET_BASKET_REQUEST_TEXTVALUES: Unspecified error: E_FAIL(0x80004005)
GetHierarchyDetails:ERROR:  Attribute 'SVUQACORPORATE' not found
GetHierarchyDetails:ERROR:  Attribute 'SVUQACORPORATE' not found
GetHierarchyDetails:ERROR:  Attribute 'SVUQACORPORATE' not found
GetHierarchyDetails:ERROR:  Attribute 'SVUQACORPORATE' not found
