SP_UPDATE_MARKET_REQUEST_UPDATE: Client unable to establish connection
SP_UPDATE_MARKET_REQUEST: Object reference not set to an instance of an object.
GetFiltersDataTable:Client unable to establish connection
Page_Load: Object reference not set to an instance of an object.
GetFiltersDataTable:Client unable to establish connection
Page_Load: Object reference not set to an instance of an object.
GetFiltersDataTable:Client unable to establish connection
GetFiltersDataTable:Client unable to establish connection
Page_Load: Object reference not set to an instance of an object.
GetFiltersDataTable:Client unable to establish connection
Page_Load: Object reference not set to an instance of an object.
GetFiltersDataTable:Unspecified error: E_FAIL(0x80004005)
Page_Load: Object reference not set to an instance of an object.
GetFiltersDataTable:Client unable to establish connection
Page_Load: Object reference not set to an instance of an object.
GetFiltersDataTable:Client unable to establish connection
Page_Load: Object reference not set to an instance of an object.
CreateFilterControl: CustomLevel1(NewItems): Items selection is out of range. Index 0 is not available in the Items collection.
Parameter name: index
CreateCorporateProductSizeList: A column named 'PRODUCT_SIZE_DESC' already belongs to this DataTable.
CreateCorporateProductSizeList: A column named 'PRODUCT_SIZE_DESC' already belongs to this DataTable.
CreateCorporateProductSizeList: A column named 'PRODUCT_SIZE_DESC' already belongs to this DataTable.
CreateCorporateProductSizeList: A column named 'PRODUCT_SIZE_DESC' already belongs to this DataTable.
CreateCorporateProductSizeList: A column named 'PRODUCT_SIZE_DESC' already belongs to this DataTable.
CreateCorporateProductSizeList: A column named 'PRODUCT_SIZE_DESC' already belongs to this DataTable.
CreateCorporateProductSizeList: A column named 'PRODUCT_SIZE_DESC' already belongs to this DataTable.
CreateCorporateProductSizeList: A column named 'PRODUCT_SIZE_DESC' already belongs to this DataTable.
CreateCorporateProductSizeList: A column named 'PRODUCT_SIZE_DESC' already belongs to this DataTable.
CreateCorporateProductSizeList: A column named 'PRODUCT_SIZE_DESC' already belongs to this DataTable.
CreateCorporateProductSizeList: A column named 'PRODUCT_SIZE_DESC' already belongs to this DataTable.
CreateCorporateProductSizeList: A column named 'PRODUCT_SIZE_DESC' already belongs to this DataTable.
ddlHierarchy_SelectedIndexChanged: Exception of type 'System.OutOfMemoryException' was thrown.
CreateCorporateProductSizeList: A column named 'PRODUCT_SIZE_DESC' already belongs to this DataTable.
CreateCorporateProductSizeList: A column named 'PRODUCT_SIZE_DESC' already belongs to this DataTable.
BtnShowReport_Click: The DateTime represented by the string is not supported in calendar System.Globalization.GregorianCalendar.
BtnShowReport_Click: Operator '!=' cannot be applied to operands of type 'string' and 'int'
BtnShowReport_Click: Operator '!=' cannot be applied to operands of type 'string' and 'int'
SP_UPDATE_MARKET_REQUEST_UPDATE: Client unable to establish connection
SP_UPDATE_MARKET_REQUEST: Object reference not set to an instance of an object.
GetFiltersDataTable:Client unable to establish connection
Page_Load: Object reference not set to an instance of an object.
GetFiltersDataTable:Client unable to establish connection
Page_Load: Object reference not set to an instance of an object.
GetFiltersDataTable:Client unable to establish connection
Page_Load: Object reference not set to an instance of an object.
SP_UPDATE_MARKET_REQUEST_UPDATE: Client unable to establish connection
SP_UPDATE_MARKET_REQUEST: Object reference not set to an instance of an object.
GetFiltersDataTable:Client unable to establish connection
Page_Load: Object reference not set to an instance of an object.
GetFiltersDataTable:Client unable to establish connection
Page_Load: Object reference not set to an instance of an object.
GetFiltersDataTable:Client unable to establish connection
Page_Load: Object reference not set to an instance of an object.
