Login.aspx.cs > CheckLoginThread was being aborted.
Login.aspx.cs > btnLogin_Click:Thread was being aborted.
Ticket:vnz5T2NvH3Mo6ZSK6r85rPMJ
Login.aspx.cs > CheckLoginThread was being aborted.
Login.aspx.cs > btnLogin_Click:Thread was being aborted.
DataManager.cs > IsUserLockedCould not find stored procedure 'usp_UserAccountLockStatus'.
Login.aspx.cs > CheckLoginThread was being aborted.
Login.aspx.cs > btnLogin_Click:Thread was being aborted.
DataManager.cs > GetUserRoleIdByUserNameAndProfileName:'NZOLEDB' failed with no error message available, result code: E_INVALIDARG(0x80070057).
Login.aspx.cs > CheckLoginThread was being aborted.
Login.aspx.cs > btnLogin_Click:Thread was being aborted.
DataManager.cs > GetUserRoleIdByUserNameAndProfileName:'NZOLEDB' failed with no error message available, result code: E_INVALIDARG(0x80070057).
Login.aspx.cs > CheckLoginThread was being aborted.
Login.aspx.cs > btnLogin_Click:Thread was being aborted.
DataManager.cs > GetUserRoleIdByUserNameAndProfileName:'NZOLEDB' failed with no error message available, result code: E_INVALIDARG(0x80070057).
Login.aspx.cs > CheckLoginThread was being aborted.
Login.aspx.cs > btnLogin_Click:Thread was being aborted.
DataManager.cs > GetUserRoleIdByUserNameAndProfileName:'NZOLEDB' failed with no error message available, result code: E_INVALIDARG(0x80070057).
Login.aspx.cs > CheckLoginThread was being aborted.
Login.aspx.cs > btnLogin_Click:Thread was being aborted.
DataManager.cs > GetUserRoleIdByUserNameAndProfileName:'NZOLEDB' failed with no error message available, result code: E_INVALIDARG(0x80070057).
Login.aspx.cs > CheckLoginThread was being aborted.
Login.aspx.cs > btnLogin_Click:Thread was being aborted.
DataManager.cs > GetUserRoleIdByUserNameAndProfileName:'NZOLEDB' failed with no error message available, result code: E_INVALIDARG(0x80070057).
Login.aspx.cs > CheckLoginThread was being aborted.
Login.aspx.cs > btnLogin_Click:Thread was being aborted.
DataManager.cs > GetUserRoleIdByUserNameAndProfileName:'NZOLEDB' failed with no error message available, result code: E_INVALIDARG(0x80070057).
DataManager.cs > GetFieldValueNetezza Keyword not supported: 'provider'.
DataManager.cs > GetFieldValueNetezza Keyword not supported: 'provider'.
