SP_REPLICATE_CUSTOMHIERARCHY_DELETE1: Client unable to establish connection
SP_REPLICATE_CUSTOMHIERARCHY: Object reference not set to an instance of an object.
GetMenuDataTable:Unspecified error: E_FAIL(0x80004005)
MenuItems: Object reference not set to an instance of an object.
SP_REPLICATE_CUSTOMHIERARCHY_DELETE1: Client unable to establish connection
SP_REPLICATE_CUSTOMHIERARCHY: Object reference not set to an instance of an object.
GetMenuDataTable:Client unable to establish connection
MenuItems: Object reference not set to an instance of an object.
CreateCorporateProductSizeList: A column named 'PRODUCT_SIZE_DESC' already belongs to this DataTable.
CreateCorporateProductSizeList: A column named 'PRODUCT_SIZE_DESC' already belongs to this DataTable.
CreateCorporateProductSizeList: A column named 'PRODUCT_SIZE_DESC' already belongs to this DataTable.
Ticket:-1
Ticket:-1
CreateDepartmentList: A column named 'DEPARTMENT' already belongs to this DataTable.
CreateDepartmentList: A column named 'DEPARTMENT' already belongs to this DataTable.
CreateDepartmentList: A column named 'DEPARTMENT' already belongs to this DataTable.
ddlDepartment_SelectedIndexChanged: Cannot perform '=' operation on System.Int32 and System.String.
ddlCategory_SelectedIndexChanged: Syntax error: Missing operand after 'andCATEGORY' operator.
